/Users/snair/Java/Projects/base-portal/api-rest-service/src/main/java/net/laureate/api/service/contollers/InvoiceController.java
/Users/snair/Java/Projects/base-portal/api-rest-service/src/main/java/net/laureate/api/service/security/CustomUserDetailsService.java
/Users/snair/Java/Projects/base-portal/api-rest-service/src/main/java/net/laureate/api/service/ServletInitializer.java
/Users/snair/Java/Projects/base-portal/api-rest-service/src/main/java/net/laureate/api/service/security/CorsFilter.java
/Users/snair/Java/Projects/base-portal/api-rest-service/src/main/java/net/laureate/api/service/contollers/PaymentOrderController.java
/Users/snair/Java/Projects/base-portal/api-rest-service/src/main/java/net/laureate/api/service/dao/Role.java
/Users/snair/Java/Projects/base-portal/api-rest-service/src/main/java/net/laureate/api/service/contollers/CustomerController.java
/Users/snair/Java/Projects/base-portal/api-rest-service/src/main/java/net/laureate/api/service/dao/repo/UserRepository.java
/Users/snair/Java/Projects/base-portal/api-rest-service/src/main/java/net/laureate/api/service/dao/User.java
/Users/snair/Java/Projects/base-portal/api-rest-service/src/main/java/net/laureate/api/service/ApiRestServiceApplication.java
/Users/snair/Java/Projects/base-portal/api-rest-service/src/main/java/net/laureate/api/service/contollers/ConfigurationDataController.java
/Users/snair/Java/Projects/base-portal/api-rest-service/src/main/java/net/laureate/api/service/contollers/UserAuthenticationController.java
